eBird Status Data Products - 1 eBird Status Data Products
…
1.4.2 Regional statistics

For this application, we calculate the proportion of the population within protected areas in Queensland for a set of species. As an example species group, we’ll use a set of 12 species that are mostly endemic to eastern Australia. For migratory species we’ll focus on the breeding season.

species_list <- c("yefhon1", "easspi1", "scamyz1", "blfmon1", "railor5",
                  "yelrob1", "bruwat1", "belmin1", "ytbcoc1", "scblor1",
                  "broger1", "cresht1")

# add common names, migrant/resident status, and quality
species_list <- filter(ebirdst_runs, species_code %in% species_list) %>% 
  mutate(quality = ifelse(is_resident, resident_quality, breeding_quality)) %>% 
  select(species_code, common_name, is_resident, quality)
print(species_list)
#> # A tibble: 12 × 4
#>   species_code common_name         is_resident quality
#>   <chr>        <chr>               <lgl>       <chr>  
#> 1 belmin1      Bell Miner          TRUE        2      
#> 2 blfmon1      Black-faced Monarch FALSE       3      
#> 3 broger1      Brown Gerygone      TRUE        3      
#> 4 bruwat1      Little Wattlebird   TRUE        3      
#> 5 cresht1      Eastern Shrike-tit  TRUE        1      
#> 6 easspi1      Eastern Spinebill   FALSE       3      
#> # ℹ 6 more rows
…
