eBird Workshops OCA II - 1 Best Practices for using eBird Data
…
Checkpoint

Take some time to explore the variables in the observation dataset. Notice that the EBD duplicates many of the checklist-level variables from the SED.

When we read the data into R, we used unique = FALSE and rollup = FALSE. By default the read functions in auk perform two important pre-processing steps: combining duplicate shared checklists and taxonomic rollup. We intentionally turned off this functionality for the purposes of demonstration.

1.3.1 Shared checklists

eBird allows users to share checklists with other eBirders in their group, for example this checklist is shared by 10 observers. These checklists can be identified by looking at the group_identifier variable, which assigns an ID connecting all checklists in the group.

checklists %>% 
  filter(!is.na(group_identifier)) %>% 
  arrange(group_identifier) %>% 
  select(sampling_event_identifier, group_identifier)
#> # A tibble: 8,632 × 2
#>   sampling_event_identifier group_identifier
#>   <chr>                     <chr>           
#> 1 S133745869                G10019405       
#> 2 S134107963                G10019405       
#> 3 S134468930                G10040061       
#> 4 S134466265                G10040061       
#> 5 S134466330                G10040062       
#> 6 S134468944                G10040062       
#> # ℹ 8,626 more rows
…
The observation_count variable has true counts as well as “X”s, which indicate that the species was detected but the number of individuals was not counted. auk_zerofill() adds a new binary column, species_observed, indicating whether or not the species was detected.

select(zf, observation_count, species_observed) %>% 
  head(10)
#> # A tibble: 10 × 2
#>   observation_count species_observed
#>   <chr>             <lgl>           
#> 1 X                 TRUE            
#> 2 X                 TRUE            
#> 3 0                 FALSE           
#> 4 0                 FALSE           
#> 5 0                 FALSE           
#> 6 0                 FALSE           
#> # ℹ 4 more rows

Let’s convert the “X”s to NAs and transform observation_count to an integer variable.

zf$observation_count <- if_else(zf$observation_count == "X", 
                                NA_character_, zf$observation_count) %>% 
  as.integer()
select(zf, observation_count, species_observed) %>% 
  head(10)
#> # A tibble: 10 × 2
#>   observation_count species_observed
#>               <int> <lgl>           
#> 1                NA TRUE            
#> 2                NA TRUE            
#> 3                 0 FALSE           
#> 4                 0 FALSE           
#> 5                 0 FALSE           
#> 6                 0 FALSE           
#> # ℹ 4 more rows
…
1.6.2 Converting to spatial format

Many applications of eBird data require converting the data into an explicitly spatial format, for example, to make a map or subset the observations to only those within a polygon for a protected area. The R package sf can be use to represent spatial points, lines, and polygons in R. We can convert the data frame of checklists to an sf object using the latitude and longitude.

checklists_sf <- st_as_sf(checklists_zf, coords = c("longitude", "latitude"),
                          # 4326 is the code for an unprojected lon/lat
                          # coordiante reference system
                          crs = 4326)
print(checklists_sf)
#> Simple feature collection with 16526 features and 9 fields
#> Geometry type: POINT
#> Dimension:     XY
#> Bounding box:  xmin: -57.6 ymin: -35 xmax: -48.7 ymax: -27.1
#> Geodetic CRS:  WGS 84
#> # A tibble: 16,526 × 10
#>   checklist_id observation_date time_observations_started protocol_type
#> * <chr>        <date>           <chr>                     <chr>        
#> 1 S117444976   2013-05-18       07:47:00                  Traveling    
#> 2 S117215031   2013-04-14       07:53:00                  Traveling    
#> 3 S53740464    2013-01-11       08:00:00                  Traveling    
#> 4 S16023053    2013-12-14       17:30:00                  Stationary   
#> 5 S15844084    2013-12-03       13:00:00                  Traveling    
#> 6 S117214399   2013-03-16       07:36:00                  Traveling    
#> # ℹ 16,520 more rows
#> # ℹ 6 more variables: duration_minutes <int>, effort_distance_km <dbl>,
#> #   number_observers <int>, observation_count <int>, species_observed <lgl>,
#> #   geometry <POINT [°]>
…
