eBird Status Data Products - 2 eBird Trends Data Products
…
2.3.1 Vector (points)

The tabular trend data can be converted into point vector features for use with the sf package using the sf function st_as_sf().

trends_sf <- st_as_sf(trends_golwhi1, 
                      coords = c("longitude", "latitude"), 
                      crs = 4326)
print(trends_sf)
#> Simple feature collection with 840 features and 15 fields
#> Geometry type: POINT
#> Dimension:     XY
#> Bounding box:  xmin: 140 ymin: -43.5 xmax: 154 ymax: -15.6
#> Geodetic CRS:  WGS 84
#> # A tibble: 840 × 16
#>   species_code season   start_year end_year start_date end_date srd_id     abd
#> * <chr>        <chr>         <int>    <int> <chr>      <chr>     <int>   <dbl>
#> 1 golwhi1      breeding       2013     2021 12-27      02-08    662214 0.00619
#> 2 golwhi1      breeding       2013     2021 12-27      02-08    663715 0.0252 
#> 3 golwhi1      breeding       2013     2021 12-27      02-08    663716 0.0484 
#> 4 golwhi1      breeding       2013     2021 12-27      02-08    665216 0.260  
#> 5 golwhi1      breeding       2013     2021 12-27      02-08    665217 0.0246 
#> 6 golwhi1      breeding       2013     2021 12-27      02-08    665218 0.147  
#> # ℹ 834 more rows
#> # ℹ 8 more variables: abd_ppy <dbl>, abd_ppy_lower <dbl>, abd_ppy_upper <dbl>,
#> #   abd_ppy_nonzero <lgl>, abd_trend <dbl>, abd_trend_lower <dbl>,
#> #   abd_trend_upper <dbl>, geometry <POINT [°]>
…
2.4 Uncertainty

The model used to estimate trends produces an ensemble of 100 estimates at each location, each based on a random subsample of eBird data. This ensemble of estimates is used to quantify uncertainty in the trends estimates. The estimated trend is the median across the ensemble, and the 80% confidence intervals are the lower 10th and upper 90th percentiles across the ensemble. Those wishing to access estimates from the individual folds making up the ensemble can use fold_estimates = TRUE when loading data. These fold-level estimates can be used to quantify uncertainty, for example, when calculating the trend for a given region. For example, let’s load the fold-level estimates:

trends_golwhi1_folds <- load_trends("golwhi1", fold_estimates = TRUE)
print(trends_golwhi1_folds)
#> # A tibble: 84,000 × 8
#>   species_code season    fold srd_id latitude longitude     abd abd_ppy
#>   <chr>        <chr>    <dbl>  <int>    <dbl>     <dbl>   <dbl>   <dbl>
#> 1 golwhi1      breeding     1 662214    -15.6      145. 0.00619  -0.125
#> 2 golwhi1      breeding     1 663715    -15.9      145. 0.0252    5.23 
#> 3 golwhi1      breeding     1 663716    -15.9      145. 0.0484    2.77 
#> 4 golwhi1      breeding     1 665216    -16.1      145. 0.260    -0.883
#> 5 golwhi1      breeding     1 665217    -16.1      145. 0.0246    3.81 
#> 6 golwhi1      breeding     1 665218    -16.1      145. 0.147     0.640
#> # ℹ 83,994 more rows
…
